StartDate,EndDate,Status,IPAddress,Progress,Duration (in seconds),Finished,RecordedDate,ResponseId,RecipientLastName,RecipientFirstName,RecipientEmail,ExternalReference,LocationLatitude,LocationLongitude,DistributionChannel,UserLanguage,Q3_1,Q4_1,Q5_1,Q8_1,Q9_1,Q10_1,Q12_1,Q13_1,Q14_1,Q15_1,Q16_1,Q17_1,Q18_1,Q19_1,Q20_4,Q21_1,Q22_1,Q23,Q24,Q26_1,Q27_1,Q28_1,Q30_1,Q31_1,Q32_1,Q33_1,Q34_1,Q35_1,Q36_1,Q37_1,Q38_4,Q39_1,Q40_1,Q41,Q42,Q44_1,Q45_1,Q46_1,Q48_1,Q49_1,Q50_1,Q51_1,Q52_1,Q53_1,Q54_1,Q55_1,Q56_4,Q57_1,Q58_1,Q59,Q60,Q62_1,Q63_1,Q64_1,Q66_1,Q67_1,Q68_1,Q69_1,Q70_1,Q71_1,Q72_1,Q73_1,Q74_4,Q75_1,Q76_1,Q77,Q78,Q80_1,Q81_1,Q82_1,Q84_1,Q85_1,Q86_1,Q87_1,Q88_1,Q89_1,Q90_1,Q91_1,Q92_4,Q93_1,Q94_1,Q95,Q96,Q98_1,Q99_1,Q100_1,Q102_1,Q103_1,Q104_1,Q105_1,Q106_1,Q107_1,Q108_1,Q109_1,Q110_4,Q111_1,Q112_1,Q113,Q114,Q116_1,Q117_1,Q118_1,Q120_1,Q121_1,Q122_1,Q123_1,Q124_1,Q125_1,Q126_1,Q127_1,Q128_4,Q129_1,Q130_1,Q131,Q132,Q134_1,Q135_1,Q136_1,Q138_1,Q139_1,Q140_1,Q141_1,Q142_1,Q143_1,Q144_1,Q145_1,Q146_4,Q147_1,Q148_1,Q149,Q150,Q152_1,Q153_1,Q154_1,Q156_1,Q157_1,Q158_1,Q159_1,Q160_1,Q161_1,Q162_1,Q163_1,Q164_4,Q165_1,Q166_1,Q167,Q168,Q170_1,Q171_1,Q172_1,Q174_1,Q175_1,Q176_1,Q177_1,Q178_1,Q179_1,Q180_1,Q181_1,Q182_4,Q183_1,Q184_1,Q185,Q186,Q188_1,Q189_1,Q190_1,Q192_1,Q193_1,Q194_1,Q195_1,Q196_1,Q197_1,Q198_1,Q199_1,Q200_4,Q201_1,Q202_1,Q203,Q204,Q206_1,Q207_1,Q208_1,Q210_1,Q211_1,Q212_1,Q213_1,Q214_1,Q215_1,Q216_1,Q217_1,Q218_4,Q219_1,Q220_1,Q221,Q222,Q224_1,Q225_1,Q226_1,Q228_1,Q229_1,Q230_1,Q231_1,Q232_1,Q233_1,Q234_1,Q235_1,Q236_4,Q237_1,Q238_1,Q239,Q240,Q242_1,Q243_1,Q244_1,Q246_1,Q247_1,Q248_1,Q249_1,Q250_1,Q251_1,Q252_1,Q253_1,Q254_4,Q255_1,Q256_1,Q257,Q258,Q260_1,Q261_1,Q262_1,Q264_1,Q265_1,Q266_1,Q267_1,Q268_1,Q269_1,Q270_1,Q271_1,Q272_4,Q273_1,Q274_1,Q275,Q276,Q278_1,Q279_1,Q280_1,Q282_1,Q283_1,Q284_1,Q285_1,Q286_1,Q287_1,Q288_1,Q289_1,Q290_4,Q291_1,Q292_1,Q293,Q294,Q295#1_1,Q295#2_1,Q295#3_1,Q295#4_1,Q295#5_1,Q368#1_1,Q368#2_1,Q368#3_1,Q368#4_1,Q368#5_1,Q298#1_1,Q298#2_1,Q298#3_1,Q298#4_1,Q298#5_1,Q300,Q301,Q301_4_TEXT,Q302,Q303,Q304,Q305,Q306,Q41 - Topics
Start Date,End Date,Response Type,IP Address,Progress,Duration (in seconds),Finished,Recorded Date,Response ID,Recipient Last Name,Recipient First Name,Recipient Email,External Data Reference,Location Latitude,Location Longitude,Distribution Channel,User Language,"Evaluation

Bad / Awful / Unpleasant

Good / Nice / Pleasant","Potency 


Impotent / Powerless / Little 

Potent / Powerful / Big","Activity 

Slow / Inactive 

Fast / Active","Evaluation

Bad / Awful / Unpleasant

Good / Nice / Pleasant","Potency 

Impotent / Powerless / Little 

Potent / Powerful / Big","Activity 

Slow / Inactive 

Fast / Active","Evaluation

Bad / Awful / Unpleasant

Good / Nice / Pleasant","Potency 

Impotent / Powerless / Little 

Potent / Powerful / Big","Activity 

Slow / Inactive 

Fast / Active","How much mental and perceptual activity was required (e.g. thinking, deciding, calculating, remembering, looking, searching, etc.)? Was the task easy or demanding? - 1","How much physical activity was required (e.g. pushing, pulling, turning, controlling, activating, etc.)? Was the task slack or strenuous? - 1",How much time pressure did you feel due to the rate or pace at which the task occurred? Was the pace slow and leisurely or rapid and frantic? - 1,How successful were you in performing the task set by the experimenter?  How satisfied were you with your performance in accomplishing this goal? - 1,How hard did you have to work (mentally and physically) to accomplish your level of performance? - 1,"How irritated, stressed, and annoyed versus content, relaxed and complacent did you feel during the task? - 4","Did you feel safe or unsafe in the wheelchair? How safe/unsafe?

 
 Unsafe 

 Safe","Did you find the wheelchair easy or difficult to use? How easy/difficult? 

 

 Difficult 

 Easy",Did you feel like the wheelchair helped (or made it difficult for) you to avoid obstacles? How?,Did you feel like the wheelchair helped (or made it difficult for) you to complete the task? How?,"Evaluation

Bad / Awful / Unpleasant

Good / Nice / Pleasant","Impotent / Powerless / Little 

Potent / Powerful / Big 

 
 Potency","Activity 

Slow / Inactive 

Fast / Active","Evaluation

Bad / Awful / Unpleasant

Good / Nice / Pleasant","Potency 

Impotent / Powerless / Little 

Potent / Powerful / Big","Activity 

Slow / Inactive 

Fast / Active","How much mental and perceptual activity was required (e.g. thinking, deciding, calculating, remembering, looking, searching, etc.)? Was the task easy or demanding? - 1","How much physical activity was required (e.g. pushing, pulling, turning, controlling, activating, etc.)? Was the task slack or strenuous? - 1",How much time pressure did you feel due to the rate or pace at which the task occurred? Was the pace slow and leisurely or rapid and frantic? - 1,How successful were you in performing the task set by the experimenter?  How satisfied were you with your performance in accomplishing this goal? - 1,How hard did you have to work (mentally and physically) to accomplish your level of performance? - 1,"How irritated, stressed, and annoyed versus content, relaxed and complacent did you feel during the task? - 4","Did you feel safe or unsafe in the wheelchair? How safe/unsafe?

 
 Unsafe 

 Safe","Did you find the wheelchair easy or difficult to use? How easy/difficult? 

 

 Difficult 

 Easy",Did you feel like the wheelchair helped (or made it difficult for) you to avoid obstacles? How?,Did you feel like the wheelchair helped (or made it difficult for) you to complete the task? How?,"Evaluation

Bad / Awful / Unpleasant

Good / Nice / Pleasant","Potency 

Impotent / Powerless / Little 

Potent / Powerful / Big","Activity 

Slow / Inactive 

Fast / Active","Evaluation

Bad / Awful / Unpleasant

Good / Nice / Pleasant","Potency 

Impotent / Powerless / Little 

Potent / Powerful / Big","Activity 

Slow / Inactive 

Fast / Active","How much mental and perceptual activity was required (e.g. thinking, deciding, calculating, remembering, looking, searching, etc.)? Was the task easy or demanding? - 1","How much physical activity was required (e.g. pushing, pulling, turning, controlling, activating, etc.)? Was the task slack or strenuous? - 1",How much time pressure did you feel due to the rate or pace at which the task occurred? Was the pace slow and leisurely or rapid and frantic? - 1,How successful were you in performing the task set by the experimenter?  How satisfied were you with your performance in accomplishing this goal? - 1,How hard did you have to work (mentally and physically) to accomplish your level of performance? - 1,"How irritated, stressed, and annoyed versus content, relaxed and complacent did you feel during the task? - 4","Did you feel safe or unsafe in the wheelchair? How safe/unsafe?

 
 Unsafe 

 Safe","Did you find the wheelchair easy or difficult to use? How easy/difficult? 

 

 Difficult 

 Easy",Did you feel like the wheelchair helped (or made it difficult for) you to avoid obstacles? How?,Did you feel like the wheelchair helped (or made it difficult for) you to complete the task? How?,"Evaluation

Bad / Awful / Unpleasant

Good / Nice / Pleasant","Potency 

Impotent / Powerless / Little 

Potent / Powerful / Big","Activity 

Slow / Inactive 

Fast / Active","Evaluation

Bad / Awful / Unpleasant

Good / Nice / Pleasant","Potency 

Impotent / Powerless / Little 

Potent / Powerful / Big","Activity 

Slow / Inactive 

Fast / Active","How much mental and perceptual activity was required (e.g. thinking, deciding, calculating, remembering, looking, searching, etc.)? Was the task easy or demanding? - 1","How much physical activity was required (e.g. pushing, pulling, turning, controlling, activating, etc.)? Was the task slack or strenuous? - 1",How much time pressure did you feel due to the rate or pace at which the task occurred? Was the pace slow and leisurely or rapid and frantic? - 1,How successful were you in performing the task set by the experimenter?  How satisfied were you with your performance in accomplishing this goal? - 1,How hard did you have to work (mentally and physically) to accomplish your level of performance? - 1,"How irritated, stressed, and annoyed versus content, relaxed and complacent did you feel during the task? - 4","Did you feel safe or unsafe in the wheelchair? How safe/unsafe?

 
 Unsafe 

 Safe","Did you find the wheelchair easy or difficult to use? How easy/difficult? 

 

 Difficult 

 Easy",Did you feel like the wheelchair helped (or made it difficult for) you to avoid obstacles? How?,Did you feel like the wheelchair helped (or made it difficult for) you to complete the task? How?,"Evaluation

Bad / Awful / Unpleasant

Good / Nice / Pleasant","Potency 

Impotent / Powerless / Little 

Potent / Powerful / Big","Activity 

Slow / Inactive 

Fast / Active","Evaluation

Bad / Awful / Unpleasant

Good / Nice / Pleasant","Potency 

Impotent / Powerless / Little 

Potent / Powerful / Big","Activity 

Slow / Inactive 

Fast / Active","How much mental and perceptual activity was required (e.g. thinking, deciding, calculating, remembering, looking, searching, etc.)? Was the task easy or demanding? - 1","How much physical activity was required (e.g. pushing, pulling, turning, controlling, activating, etc.)? Was the task slack or strenuous? - 1",How much time pressure did you feel due to the rate or pace at which the task occurred? Was the pace slow and leisurely or rapid and frantic? - 1,How successful were you in performing the task set by the experimenter?  How satisfied were you with your performance in accomplishing this goal? - 1,How hard did you have to work (mentally and physically) to accomplish your level of performance? - 1,"How irritated, stressed, and annoyed versus content, relaxed and complacent did you feel during the task? - 4","Did you feel safe or unsafe in the wheelchair? How safe/unsafe?

 
 Unsafe 

 Safe","Did you find the wheelchair easy or difficult to use? How easy/difficult? 

 

 Difficult 

 Easy",Did you feel like the wheelchair helped (or made it difficult for) you to avoid obstacles? How?,Did you feel like the wheelchair helped (or made it difficult for) you to complete the task? How?,"Evaluation

Bad / Awful / Unpleasant

Good / Nice / Pleasant","Potency 

Impotent / Powerless / Little 

Potent / Powerful / Big","Activity 

Slow / Inactive 

Fast / Active","Evaluation

Bad / Awful / Unpleasant

Good / Nice / Pleasant","Potency 

Impotent / Powerless / Little 

Potent / Powerful / Big","Activity 

Slow / Inactive 

Fast / Active","How much mental and perceptual activity was required (e.g. thinking, deciding, calculating, remembering, looking, searching, etc.)? Was the task easy or demanding? - 1","How much physical activity was required (e.g. pushing, pulling, turning, controlling, activating, etc.)? Was the task slack or strenuous? - 1",How much time pressure did you feel due to the rate or pace at which the task occurred? Was the pace slow and leisurely or rapid and frantic? - 1,How successful were you in performing the task set by the experimenter?  How satisfied were you with your performance in accomplishing this goal? - 1,How hard did you have to work (mentally and physically) to accomplish your level of performance? - 1,"How irritated, stressed, and annoyed versus content, relaxed and complacent did you feel during the task? - 4","Did you feel safe or unsafe in the wheelchair? How safe/unsafe?

 
 Unsafe 

 Safe","Did you find the wheelchair easy or difficult to use? How easy/difficult? 

 

 Difficult 

 Easy",Did you feel like the wheelchair helped (or made it difficult for) you to avoid obstacles? How?,Did you feel like the wheelchair helped (or made it difficult for) you to complete the task? How?,"Evaluation

Bad / Awful / Unpleasant

Good / Nice / Pleasant","Potency 

Impotent / Powerless / Little 

Potent / Powerful / Big","Activity 

Slow / Inactive 

Fast / Active","Evaluation

Bad / Awful / Unpleasant

Good / Nice / Pleasant","Potency 

Impotent / Powerless / Little 

Potent / Powerful / Big","Activity 

Slow / Inactive 

Fast / Active","How much mental and perceptual activity was required (e.g. thinking, deciding, calculating, remembering, looking, searching, etc.)? Was the task easy or demanding? - 1","How much physical activity was required (e.g. pushing, pulling, turning, controlling, activating, etc.)? Was the task slack or strenuous? - 1",How much time pressure did you feel due to the rate or pace at which the task occurred? Was the pace slow and leisurely or rapid and frantic? - 1,How successful were you in performing the task set by the experimenter?  How satisfied were you with your performance in accomplishing this goal? - 1,How hard did you have to work (mentally and physically) to accomplish your level of performance? - 1,"How irritated, stressed, and annoyed versus content, relaxed and complacent did you feel during the task? - 4","Did you feel safe or unsafe in the wheelchair? How safe/unsafe?

 
 Unsafe 

 Safe","Did you find the wheelchair easy or difficult to use? How easy/difficult? 

 

 Difficult 

 Easy",Did you feel like the wheelchair helped (or made it difficult for) you to avoid obstacles? How?,Did you feel like the wheelchair helped (or made it difficult for) you to complete the task? How?,"Evaluation

Bad / Awful / Unpleasant

Good / Nice / Pleasant","Potency 

Impotent / Powerless / Little 

Potent / Powerful / Big","Activity 

Slow / Inactive 

Fast / Active","Evaluation

Bad / Awful / Unpleasant

Good / Nice / Pleasant","Potency 

Impotent / Powerless / Little 

Potent / Powerful / Big","Activity 

Slow / Inactive 

Fast / Active","How much mental and perceptual activity was required (e.g. thinking, deciding, calculating, remembering, looking, searching, etc.)? Was the task easy or demanding? - 1","How much physical activity was required (e.g. pushing, pulling, turning, controlling, activating, etc.)? Was the task slack or strenuous? - 1",How much time pressure did you feel due to the rate or pace at which the task occurred? Was the pace slow and leisurely or rapid and frantic? - 1,How successful were you in performing the task set by the experimenter?  How satisfied were you with your performance in accomplishing this goal? - 1,How hard did you have to work (mentally and physically) to accomplish your level of performance? - 1,"How irritated, stressed, and annoyed versus content, relaxed and complacent did you feel during the task? - 4","Did you feel safe or unsafe in the wheelchair? How safe/unsafe?

 
 Unsafe 

 Safe","Did you find the wheelchair easy or difficult to use? How easy/difficult? 

 

 Difficult 

 Easy",Did you feel like the wheelchair helped (or made it difficult for) you to avoid obstacles? How?,Did you feel like the wheelchair helped (or made it difficult for) you to complete the task? How?,"Evaluation

Bad / Awful / Unpleasant

Good / Nice / Pleasant","Potency 

Impotent / Powerless / Little 

Potent / Powerful / Big","Activity 

Slow / Inactive 

Fast / Active","Evaluation

Bad / Awful / Unpleasant

Good / Nice / Pleasant","Potency 

Impotent / Powerless / Little 

Potent / Powerful / Big","Activity 

Slow / Inactive 

Fast / Active","How much mental and perceptual activity was required (e.g. thinking, deciding, calculating, remembering, looking, searching, etc.)? Was the task easy or demanding? - 1","How much physical activity was required (e.g. pushing, pulling, turning, controlling, activating, etc.)? Was the task slack or strenuous? - 1",How much time pressure did you feel due to the rate or pace at which the task occurred? Was the pace slow and leisurely or rapid and frantic? - 1,How successful were you in performing the task set by the experimenter?  How satisfied were you with your performance in accomplishing this goal? - 1,How hard did you have to work (mentally and physically) to accomplish your level of performance? - 1,"How irritated, stressed, and annoyed versus content, relaxed and complacent did you feel during the task? - 4","Did you feel safe or unsafe in the wheelchair? How safe/unsafe?

 
 Unsafe 

 Safe","Did you find the wheelchair easy or difficult to use? How easy/difficult? 

 

 Difficult 

 Easy",Did you feel like the wheelchair helped (or made it difficult for) you to avoid obstacles? How?,Did you feel like the wheelchair helped (or made it difficult for) you to complete the task? How?,"Evaluation

Bad / Awful / Unpleasant

Good / Nice / Pleasant","Potency 

Impotent / Powerless / Little 

Potent / Powerful / Big","Activity 

Slow / Inactive 

Fast / Active","Evaluation

Bad / Awful / Unpleasant

Good / Nice / Pleasant","Potency 

Impotent / Powerless / Little 

Potent / Powerful / Big","Activity 

Slow / Inactive 

Fast / Active","How much mental and perceptual activity was required (e.g. thinking, deciding, calculating, remembering, looking, searching, etc.)? Was the task easy or demanding? - 1","How much physical activity was required (e.g. pushing, pulling, turning, controlling, activating, etc.)? Was the task slack or strenuous? - 1",How much time pressure did you feel due to the rate or pace at which the task occurred? Was the pace slow and leisurely or rapid and frantic? - 1,How successful were you in performing the task set by the experimenter?  How satisfied were you with your performance in accomplishing this goal? - 1,How hard did you have to work (mentally and physically) to accomplish your level of performance? - 1,"How irritated, stressed, and annoyed versus content, relaxed and complacent did you feel during the task? - 4","Did you feel safe or unsafe in the wheelchair? How safe/unsafe?

 
 Unsafe 

 Safe","Did you find the wheelchair easy or difficult to use? How easy/difficult? 

 

 Difficult 

 Easy",Did you feel like the wheelchair helped (or made it difficult for) you to avoid obstacles? How?,Did you feel like the wheelchair helped (or made it difficult for) you to complete the task? How?,"Evaluation

Bad / Awful / Unpleasant

Good / Nice / Pleasant","Potency 

Impotent / Powerless / Little 

Potent / Powerful / Big","Activity 

Slow / Inactive 

Fast / Active","Evaluation

Bad / Awful / Unpleasant

Good / Nice / Pleasant","Potency 

Impotent / Powerless / Little 

Potent / Powerful / Big","Activity 

Slow / Inactive 

Fast / Active","How much mental and perceptual activity was required (e.g. thinking, deciding, calculating, remembering, looking, searching, etc.)? Was the task easy or demanding? - 1","How much physical activity was required (e.g. pushing, pulling, turning, controlling, activating, etc.)? Was the task slack or strenuous? - 1",How much time pressure did you feel due to the rate or pace at which the task occurred? Was the pace slow and leisurely or rapid and frantic? - 1,How successful were you in performing the task set by the experimenter?  How satisfied were you with your performance in accomplishing this goal? - 1,How hard did you have to work (mentally and physically) to accomplish your level of performance? - 1,"How irritated, stressed, and annoyed versus content, relaxed and complacent did you feel during the task? - 4","Did you feel safe or unsafe in the wheelchair? How safe/unsafe?

 
 Unsafe 

 Safe","Did you find the wheelchair easy or difficult to use? How easy/difficult? 

 

 Difficult 

 Easy",Did you feel like the wheelchair helped (or made it difficult for) you to avoid obstacles? How?,Did you feel like the wheelchair helped (or made it difficult for) you to complete the task? How?,"Evaluation

Bad / Awful / Unpleasant

Good / Nice / Pleasant","Potency 

Impotent / Powerless / Little 

Potent / Powerful / Big","Activity 

Slow / Inactive 

Fast / Active","Evaluation

Bad / Awful / Unpleasant

Good / Nice / Pleasant","Potency 

Impotent / Powerless / Little 

Potent / Powerful / Big","Activity 

Slow / Inactive 

Fast / Active","How much mental and perceptual activity was required (e.g. thinking, deciding, calculating, remembering, looking, searching, etc.)? Was the task easy or demanding? - 1","How much physical activity was required (e.g. pushing, pulling, turning, controlling, activating, etc.)? Was the task slack or strenuous? - 1",How much time pressure did you feel due to the rate or pace at which the task occurred? Was the pace slow and leisurely or rapid and frantic? - 1,How successful were you in performing the task set by the experimenter?  How satisfied were you with your performance in accomplishing this goal? - 1,How hard did you have to work (mentally and physically) to accomplish your level of performance? - 1,"How irritated, stressed, and annoyed versus content, relaxed and complacent did you feel during the task? - 4","Did you feel safe or unsafe in the wheelchair? How safe/unsafe?

 
 Unsafe 

 Safe","Did you find the wheelchair easy or difficult to use? How easy/difficult? 

 

 Difficult 

 Easy",Did you feel like the wheelchair helped (or made it difficult for) you to avoid obstacles? How?,Did you feel like the wheelchair helped (or made it difficult for) you to complete the task? How?,"Evaluation

Bad / Awful / Unpleasant

Good / Nice / Pleasant","Potency 

Impotent / Powerless / Little 

Potent / Powerful / Big","Activity 

Slow / Inactive 

Fast / Active","Evaluation

Bad / Awful / Unpleasant

Good / Nice / Pleasant","Potency 

Impotent / Powerless / Little 

Potent / Powerful / Big","Activity 

Slow / Inactive 

Fast / Active","How much mental and perceptual activity was required (e.g. thinking, deciding, calculating, remembering, looking, searching, etc.)? Was the task easy or demanding? - 1","How much physical activity was required (e.g. pushing, pulling, turning, controlling, activating, etc.)? Was the task slack or strenuous? - 1",How much time pressure did you feel due to the rate or pace at which the task occurred? Was the pace slow and leisurely or rapid and frantic? - 1,How successful were you in performing the task set by the experimenter?  How satisfied were you with your performance in accomplishing this goal? - 1,How hard did you have to work (mentally and physically) to accomplish your level of performance? - 1,"How irritated, stressed, and annoyed versus content, relaxed and complacent did you feel during the task? - 4","Did you feel safe or unsafe in the wheelchair? How safe/unsafe?

 
 Unsafe 

 Safe","Did you find the wheelchair easy or difficult to use? How easy/difficult? 

 

 Difficult 

 Easy",Did you feel like the wheelchair helped (or made it difficult for) you to avoid obstacles? How?,Did you feel like the wheelchair helped (or made it difficult for) you to complete the task? How?,"Evaluation

Bad / Awful / Unpleasant

Good / Nice / Pleasant","Potency 

Impotent / Powerless / Little 

Potent / Powerful / Big","Activity 

Slow / Inactive 

Fast / Active","Evaluation

Bad / Awful / Unpleasant

Good / Nice / Pleasant","Potency 

Impotent / Powerless / Little 

Potent / Powerful / Big","Activity 

Slow / Inactive 

Fast / Active","How much mental and perceptual activity was required (e.g. thinking, deciding, calculating, remembering, looking, searching, etc.)? Was the task easy or demanding? - 1","How much physical activity was required (e.g. pushing, pulling, turning, controlling, activating, etc.)? Was the task slack or strenuous? - 1",How much time pressure did you feel due to the rate or pace at which the task occurred? Was the pace slow and leisurely or rapid and frantic? - 1,How successful were you in performing the task set by the experimenter?  How satisfied were you with your performance in accomplishing this goal? - 1,How hard did you have to work (mentally and physically) to accomplish your level of performance? - 1,"How irritated, stressed, and annoyed versus content, relaxed and complacent did you feel during the task? - 4","Did you feel safe or unsafe in the wheelchair? How safe/unsafe?

 
 Unsafe 

 Safe","Did you find the wheelchair easy or difficult to use? How easy/difficult? 

 

 Difficult 

 Easy",Did you feel like the wheelchair helped (or made it difficult for) you to avoid obstacles? How?,Did you feel like the wheelchair helped (or made it difficult for) you to complete the task? How?,"Evaluation

Bad / Awful / Unpleasant

Good / Nice / Pleasant","Potency 

Impotent / Powerless / Little 

Potent / Powerful / Big","Activity 

Slow / Inactive 

Fast / Active","Evaluation

Bad / Awful / Unpleasant

Good / Nice / Pleasant","Potency 

Impotent / Powerless / Little 

Potent / Powerful / Big","Activity 

Slow / Inactive 

Fast / Active","How much mental and perceptual activity was required (e.g. thinking, deciding, calculating, remembering, looking, searching, etc.)? Was the task easy or demanding? - 1","How much physical activity was required (e.g. pushing, pulling, turning, controlling, activating, etc.)? Was the task slack or strenuous? - 1",How much time pressure did you feel due to the rate or pace at which the task occurred? Was the pace slow and leisurely or rapid and frantic? - 1,How successful were you in performing the task set by the experimenter?  How satisfied were you with your performance in accomplishing this goal? - 1,How hard did you have to work (mentally and physically) to accomplish your level of performance? - 1,"How irritated, stressed, and annoyed versus content, relaxed and complacent did you feel during the task? - 4","Did you feel safe or unsafe in the wheelchair? How safe/unsafe?

 
 Unsafe 

 Safe","Did you find the wheelchair easy or difficult to use? How easy/difficult? 

 

 Difficult 

 Easy",Did you feel like the wheelchair helped (or made it difficult for) you to avoid obstacles? How?,Did you feel like the wheelchair helped (or made it difficult for) you to complete the task? How?,"Evaluation

Bad / Awful / Unpleasant

Good / Nice / Pleasant","Potency 

Impotent / Powerless / Little 

Potent / Powerful / Big","Activity 

Slow / Inactive 

Fast / Active","Evaluation

Bad / Awful / Unpleasant

Good / Nice / Pleasant","Potency 

Impotent / Powerless / Little 

Potent / Powerful / Big","Activity 

Slow / Inactive 

Fast / Active","How much mental and perceptual activity was required (e.g. thinking, deciding, calculating, remembering, looking, searching, etc.)? Was the task easy or demanding? - 1","How much physical activity was required (e.g. pushing, pulling, turning, controlling, activating, etc.)? Was the task slack or strenuous? - 1",How much time pressure did you feel due to the rate or pace at which the task occurred? Was the pace slow and leisurely or rapid and frantic? - 1,How successful were you in performing the task set by the experimenter?  How satisfied were you with your performance in accomplishing this goal? - 1,How hard did you have to work (mentally and physically) to accomplish your level of performance? - 1,"How irritated, stressed, and annoyed versus content, relaxed and complacent did you feel during the task? - 4","Did you feel safe or unsafe in the wheelchair? How safe/unsafe?

 
 Unsafe 

 Safe","Did you find the wheelchair easy or difficult to use? How easy/difficult? 

 

 Difficult 

 Easy",Did you feel like the wheelchair helped (or made it difficult for) you to avoid obstacles? How?,Did you feel like the wheelchair helped (or made it difficult for) you to complete the task? How?,Select the scale title that represents the more important contributor to the workload for the spe... - Q295#1 - 1,Select the scale title that represents the more important contributor to the workload for the spe... - Q295#2 - 1,Select the scale title that represents the more important contributor to the workload for the spe... - Q295#3 - 1,Select the scale title that represents the more important contributor to the workload for the spe... - Q295#4 - 1,Select the scale title that represents the more important contributor to the workload for the spe... - Q295#5 - 1,"  - Q368#1 - 1","  - Q368#2 - 1","  - Q368#3 - 1","  - Q368#4 - 1","  - Q368#5 - 1","  - Q298#1 - 1","  - Q298#2 - 1","  - Q298#3 - 1","  - Q298#4 - 1","  - Q298#5 - 1",How old are you?,What is your gender? - Selected Choice,What is your gender? - Prefer to self-describe - Text,What is your occupation?,What is your mother tongue?,How often do you interact with robotic systems?,What is your experience driving powered wheelchairs?,How long have you spent driving a powered wheelchair?,Q41 - Topics
"{""ImportId"":""startDate"",""timeZone"":""America/Los_Angeles""}","{""ImportId"":""endDate"",""timeZone"":""America/Los_Angeles""}","{""ImportId"":""status""}","{""ImportId"":""ipAddress""}","{""ImportId"":""progress""}","{""ImportId"":""duration""}","{""ImportId"":""finished""}","{""ImportId"":""recordedDate"",""timeZone"":""America/Los_Angeles""}","{""ImportId"":""_recordId""}","{""ImportId"":""recipientLastName""}","{""ImportId"":""recipientFirstName""}","{""ImportId"":""recipientEmail""}","{""ImportId"":""externalDataReference""}","{""ImportId"":""locationLatitude""}","{""ImportId"":""locationLongitude""}","{""ImportId"":""distributionChannel""}","{""ImportId"":""userLanguage""}","{""ImportId"":""QID1_1""}","{""ImportId"":""QID6_1""}","{""ImportId"":""QID8_1""}","{""ImportId"":""QID14_1""}","{""ImportId"":""QID15_1""}","{""ImportId"":""QID16_1""}","{""ImportId"":""QID18_1""}","{""ImportId"":""QID19_1""}","{""ImportId"":""QID20_1""}","{""ImportId"":""QID107_1""}","{""ImportId"":""QID109_1""}","{""ImportId"":""QID326_1""}","{""ImportId"":""QID110_1""}","{""ImportId"":""QID327_1""}","{""ImportId"":""QID111_4""}","{""ImportId"":""QID339_1""}","{""ImportId"":""QID340_1""}","{""ImportId"":""QID60_TEXT""}","{""ImportId"":""QID61_TEXT""}","{""ImportId"":""QID27_1""}","{""ImportId"":""QID28_1""}","{""ImportId"":""QID29_1""}","{""ImportId"":""QID31_1""}","{""ImportId"":""QID32_1""}","{""ImportId"":""QID33_1""}","{""ImportId"":""QID365_1""}","{""ImportId"":""QID366_1""}","{""ImportId"":""QID367_1""}","{""ImportId"":""QID368_1""}","{""ImportId"":""QID369_1""}","{""ImportId"":""QID370_4""}","{""ImportId"":""QID337_1""}","{""ImportId"":""QID338_1""}","{""ImportId"":""QID83_TEXT""}","{""ImportId"":""QID84_TEXT""}","{""ImportId"":""QID35_1""}","{""ImportId"":""QID36_1""}","{""ImportId"":""QID37_1""}","{""ImportId"":""QID39_1""}","{""ImportId"":""QID40_1""}","{""ImportId"":""QID41_1""}","{""ImportId"":""QID371_1""}","{""ImportId"":""QID372_1""}","{""ImportId"":""QID373_1""}","{""ImportId"":""QID374_1""}","{""ImportId"":""QID375_1""}","{""ImportId"":""QID376_4""}","{""ImportId"":""QID335_1""}","{""ImportId"":""QID336_1""}","{""ImportId"":""QID64_TEXT""}","{""ImportId"":""QID65_TEXT""}","{""ImportId"":""QID43_1""}","{""ImportId"":""QID44_1""}","{""ImportId"":""QID45_1""}","{""ImportId"":""QID47_1""}","{""ImportId"":""QID48_1""}","{""ImportId"":""QID49_1""}","{""ImportId"":""QID377_1""}","{""ImportId"":""QID378_1""}","{""ImportId"":""QID379_1""}","{""ImportId"":""QID380_1""}","{""ImportId"":""QID381_1""}","{""ImportId"":""QID382_4""}","{""ImportId"":""QID331_1""}","{""ImportId"":""QID332_1""}","{""ImportId"":""QID68_TEXT""}","{""ImportId"":""QID69_TEXT""}","{""ImportId"":""QID94_1""}","{""ImportId"":""QID95_1""}","{""ImportId"":""QID96_1""}","{""ImportId"":""QID98_1""}","{""ImportId"":""QID99_1""}","{""ImportId"":""QID100_1""}","{""ImportId"":""QID383_1""}","{""ImportId"":""QID384_1""}","{""ImportId"":""QID385_1""}","{""ImportId"":""QID386_1""}","{""ImportId"":""QID387_1""}","{""ImportId"":""QID388_4""}","{""ImportId"":""QID329_1""}","{""ImportId"":""QID330_1""}","{""ImportId"":""QID104_TEXT""}","{""ImportId"":""QID105_TEXT""}","{""ImportId"":""QID143_1""}","{""ImportId"":""QID144_1""}","{""ImportId"":""QID145_1""}","{""ImportId"":""QID147_1""}","{""ImportId"":""QID148_1""}","{""ImportId"":""QID149_1""}","{""ImportId"":""QID389_1""}","{""ImportId"":""QID390_1""}","{""ImportId"":""QID391_1""}","{""ImportId"":""QID392_1""}","{""ImportId"":""QID393_1""}","{""ImportId"":""QID394_4""}","{""ImportId"":""QID162_1""}","{""ImportId"":""QID163_1""}","{""ImportId"":""QID164_TEXT""}","{""ImportId"":""QID165_TEXT""}","{""ImportId"":""QID193_1""}","{""ImportId"":""QID194_1""}","{""ImportId"":""QID195_1""}","{""ImportId"":""QID174_1""}","{""ImportId"":""QID175_1""}","{""ImportId"":""QID176_1""}","{""ImportId"":""QID395_1""}","{""ImportId"":""QID396_1""}","{""ImportId"":""QID397_1""}","{""ImportId"":""QID398_1""}","{""ImportId"":""QID399_1""}","{""ImportId"":""QID400_4""}","{""ImportId"":""QID341_1""}","{""ImportId"":""QID342_1""}","{""ImportId"":""QID183_TEXT""}","{""ImportId"":""QID184_TEXT""}","{""ImportId"":""QID197_1""}","{""ImportId"":""QID198_1""}","{""ImportId"":""QID199_1""}","{""ImportId"":""QID201_1""}","{""ImportId"":""QID202_1""}","{""ImportId"":""QID203_1""}","{""ImportId"":""QID401_1""}","{""ImportId"":""QID402_1""}","{""ImportId"":""QID403_1""}","{""ImportId"":""QID404_1""}","{""ImportId"":""QID405_1""}","{""ImportId"":""QID406_4""}","{""ImportId"":""QID343_1""}","{""ImportId"":""QID344_1""}","{""ImportId"":""QID210_TEXT""}","{""ImportId"":""QID211_TEXT""}","{""ImportId"":""QID213_1""}","{""ImportId"":""QID214_1""}","{""ImportId"":""QID215_1""}","{""ImportId"":""QID217_1""}","{""ImportId"":""QID218_1""}","{""ImportId"":""QID219_1""}","{""ImportId"":""QID407_1""}","{""ImportId"":""QID408_1""}","{""ImportId"":""QID409_1""}","{""ImportId"":""QID410_1""}","{""ImportId"":""QID411_1""}","{""ImportId"":""QID412_4""}","{""ImportId"":""QID345_1""}","{""ImportId"":""QID346_1""}","{""ImportId"":""QID226_TEXT""}","{""ImportId"":""QID227_TEXT""}","{""ImportId"":""QID229_1""}","{""ImportId"":""QID230_1""}","{""ImportId"":""QID231_1""}","{""ImportId"":""QID233_1""}","{""ImportId"":""QID234_1""}","{""ImportId"":""QID235_1""}","{""ImportId"":""QID413_1""}","{""ImportId"":""QID414_1""}","{""ImportId"":""QID415_1""}","{""ImportId"":""QID416_1""}","{""ImportId"":""QID417_1""}","{""ImportId"":""QID418_4""}","{""ImportId"":""QID347_1""}","{""ImportId"":""QID348_1""}","{""ImportId"":""QID242_TEXT""}","{""ImportId"":""QID243_TEXT""}","{""ImportId"":""QID245_1""}","{""ImportId"":""QID246_1""}","{""ImportId"":""QID247_1""}","{""ImportId"":""QID249_1""}","{""ImportId"":""QID250_1""}","{""ImportId"":""QID251_1""}","{""ImportId"":""QID419_1""}","{""ImportId"":""QID420_1""}","{""ImportId"":""QID421_1""}","{""ImportId"":""QID422_1""}","{""ImportId"":""QID423_1""}","{""ImportId"":""QID424_4""}","{""ImportId"":""QID349_1""}","{""ImportId"":""QID350_1""}","{""ImportId"":""QID258_TEXT""}","{""ImportId"":""QID259_TEXT""}","{""ImportId"":""QID261_1""}","{""ImportId"":""QID262_1""}","{""ImportId"":""QID263_1""}","{""ImportId"":""QID265_1""}","{""ImportId"":""QID266_1""}","{""ImportId"":""QID267_1""}","{""ImportId"":""QID425_1""}","{""ImportId"":""QID426_1""}","{""ImportId"":""QID427_1""}","{""ImportId"":""QID428_1""}","{""ImportId"":""QID429_1""}","{""ImportId"":""QID430_4""}","{""ImportId"":""QID351_1""}","{""ImportId"":""QID352_1""}","{""ImportId"":""QID274_TEXT""}","{""ImportId"":""QID275_TEXT""}","{""ImportId"":""QID277_1""}","{""ImportId"":""QID278_1""}","{""ImportId"":""QID279_1""}","{""ImportId"":""QID281_1""}","{""ImportId"":""QID282_1""}","{""ImportId"":""QID283_1""}","{""ImportId"":""QID431_1""}","{""ImportId"":""QID432_1""}","{""ImportId"":""QID433_1""}","{""ImportId"":""QID434_1""}","{""ImportId"":""QID435_1""}","{""ImportId"":""QID436_4""}","{""ImportId"":""QID353_1""}","{""ImportId"":""QID354_1""}","{""ImportId"":""QID290_TEXT""}","{""ImportId"":""QID291_TEXT""}","{""ImportId"":""QID293_1""}","{""ImportId"":""QID294_1""}","{""ImportId"":""QID295_1""}","{""ImportId"":""QID297_1""}","{""ImportId"":""QID298_1""}","{""ImportId"":""QID299_1""}","{""ImportId"":""QID437_1""}","{""ImportId"":""QID438_1""}","{""ImportId"":""QID439_1""}","{""ImportId"":""QID440_1""}","{""ImportId"":""QID441_1""}","{""ImportId"":""QID442_4""}","{""ImportId"":""QID355_1""}","{""ImportId"":""QID356_1""}","{""ImportId"":""QID306_TEXT""}","{""ImportId"":""QID307_TEXT""}","{""ImportId"":""QID309_1""}","{""ImportId"":""QID310_1""}","{""ImportId"":""QID311_1""}","{""ImportId"":""QID313_1""}","{""ImportId"":""QID314_1""}","{""ImportId"":""QID315_1""}","{""ImportId"":""QID443_1""}","{""ImportId"":""QID444_1""}","{""ImportId"":""QID445_1""}","{""ImportId"":""QID446_1""}","{""ImportId"":""QID447_1""}","{""ImportId"":""QID448_4""}","{""ImportId"":""QID357_1""}","{""ImportId"":""QID358_1""}","{""ImportId"":""QID322_TEXT""}","{""ImportId"":""QID323_TEXT""}","{""ImportId"":""QID457_1""}","{""ImportId"":""QID458_1""}","{""ImportId"":""QID459_1""}","{""ImportId"":""QID461_1""}","{""ImportId"":""QID462_1""}","{""ImportId"":""QID463_1""}","{""ImportId"":""QID464_1""}","{""ImportId"":""QID465_1""}","{""ImportId"":""QID466_1""}","{""ImportId"":""QID467_1""}","{""ImportId"":""QID468_1""}","{""ImportId"":""QID469_4""}","{""ImportId"":""QID470_1""}","{""ImportId"":""QID471_1""}","{""ImportId"":""QID472_TEXT""}","{""ImportId"":""QID473_TEXT""}","{""ImportId"":""QID453#1_1""}","{""ImportId"":""QID453#2_1""}","{""ImportId"":""QID453#3_1""}","{""ImportId"":""QID453#4_1""}","{""ImportId"":""QID453#5_1""}","{""ImportId"":""QID454#1_1""}","{""ImportId"":""QID454#2_1""}","{""ImportId"":""QID454#3_1""}","{""ImportId"":""QID454#4_1""}","{""ImportId"":""QID454#5_1""}","{""ImportId"":""QID455#1_1""}","{""ImportId"":""QID455#2_1""}","{""ImportId"":""QID455#3_1""}","{""ImportId"":""QID455#4_1""}","{""ImportId"":""QID455#5_1""}","{""ImportId"":""QID128_TEXT""}","{""ImportId"":""QID85""}","{""ImportId"":""QID85_4_TEXT""}","{""ImportId"":""QID133_TEXT""}","{""ImportId"":""QID138_TEXT""}","{""ImportId"":""QID129""}","{""ImportId"":""QID130""}","{""ImportId"":""QID131_TEXT""}","{""ImportId"":""QID64_TEXT_4918ef3bfd33499896b55b08Topics""}"
2018-08-03 16:43:42,2018-08-03 17:45:23,0,128.189.219.121,100,3700,1,2018-08-03 17:45:25,R_2374zXx3OrhyO3S,,,,,49.463500976562,-122.82199859619,anonymous,EN,3.3,2.2,2.4,3.1,2.2,2.1,2.9,1.8,2.8,1,1,6,2,3,3,6.2,6.1,"Yes, it slowed down near obstacles.","Not very much, it still allowed me to go to the wrong goals.",-2.3,3.3,2.4,-1.1,1.2,2.8,2,2,2,2,2,13,6.3,6.3,"Yes, when I tried to turn into a table the chair didn't allow me.","Yes, when I got near the goal, it completely took control.",-3.1,3.5,-1.6,-2.7,-2.1,2.9,16,19,16,4,18,18,6.5,1.3,"Yes, it didn't allow me to get near walls.","No, I was a bit stuck and I felt no help finding the goal.",-2.1,2.8,-2.3,-2.4,-2.2,2.3,2,2,14,2,2,7,6.4,2.4,"The trip was short, I didn't have a clear impression about this.","No, not at all.",2,3,3,1.5,1.4,2.6,2,2,6,4,2,3,6.2,6.2,"Yes, it didn't allow me to get near walls.","Yes, I could feel it was guiding me towards the goal.",0,0,0,0,0,0,10,10,10,10,10,10,3.5,3.5,Localization failed.,Localization failed.,1.4,2.8,2.6,1.8,1.9,2.9,2,2,1,1,5,2,6.4,6.5,"Yes, it stopped me whenever I got close to obstacles.","Yes, the audio prompts gave me directions to the goal.",2.7,-2.6,3,3.1,2.4,3.4,5,14,13,1,5,4,5.4,6.1,I felt it did slow down near obstacles but not much.,"No, not at all.",0,0,0,0,0,0,10,10,10,10,10,10,3.5,3.5,Localization failed.,Localization failed.,-2,3.3,3.3,-2.5,-2.5,3,2,2,2,2,2,15,6.5,1.8,"Yes, it kept me away from objects.","Yes, it drove me straight to the goal.",1.9,2.3,2.5,2.5,1.5,2.6,1,1,1,1,2,6,6.1,6,"Yes, it didn't let get near obstacles.","Yes, it stopped me from going to the wrong goal.",0,0,0,0,0,0,10,10,10,10,10,10,3.5,3.5,Localization failed.,Localization failed.,-1.8,-2.5,2.5,-2.5,2.7,3,5,5,8,2,7,3,1.3,6,"No, not at all. I almost crashed into a wall.","No, not at all. I had control all the time.",-1.4,3,3.2,2.1,2,2.9,2,1,1,1,2,6,6.3,6.4,"Yes, it stopped whenever near obstacles.","Yes, audio prompts helped me with finding the goal.",3.1,-2.2,3.3,3,2.9,2.9,1,1,1,0,1,1,6.1,6.5,"The trip was short, I didn't have a clear impression about this.","No, I didn't feel any guidance.",-2.6,3,3.2,1.9,-1.8,2.9,2,16,2,2,2,13,6.1,1.8,"Yes, it slowed me down when I got near objects.","Yes, it drove me straight to the goal.",2,1,1,1,1,1,2,1,2,1,2,2,2,2,2,24,1,,Student,Chinese,5,2,Months,
2018-08-07 15:14:29,2018-08-07 16:01:30,0,206.87.212.80,100,2821,1,2018-08-07 16:01:31,R_sB7abDsQ5rYTfdn,,,,,49.278793334961,-123.11389923096,anonymous,EN,2.2,2.2,2.1,-0.9,2.8,2.7,-1.6,-1.6,2.3,2,2,1,2,2,15,6.3,2.6,"Yes, it didn't allow me to get close obstacles.","Yes, it drove me directly to the goal.",2.8,2.8,2.8,1.3,1.5,2.8,2,2,2,1,1,8,6.4,6.3,"Yes, it stopped me whenever I was near objects.","Yes, audio prompts gave me useful guidance.",2.7,-3,2.8,2.7,2.5,2.7,14,1,14,1,13,4,6.4,6.3,"Yes, it didn't let me turn into obstacles.","No, not at all.",2.8,-2.3,2.7,2.6,2.5,2.4,6,6,6,2,2,5,1.9,6.3,"No, I still got really close to obstacles.","No, it didn't help me find my goals.",3.2,-1.1,3,3.2,2.1,2.2,2,2,2,2,2,2,6.4,6.3,"Yes, it slowed me down near obstacles.","No, I didn't sense any obvious help.",-1.6,2.8,2.9,-1.5,-1.5,2.6,2,13,2,1,6,13,6.5,6.1,"Yes and no, it slowed me down near obstacles but it almost drove me into a door once.","Yes, I could feel it's preventing me from going to the wrong goal.",-1.2,3,-2.1,-1.5,-1.5,2.5,3,16,3,2,3,7,6.1,5.2,It was moving very slow so I could stay away from dangers.,I don't really know because the trip was short.,2.7,1.9,3.1,2.4,1.4,2.6,2,2,2,2,1,5,6.2,6.2,"Yes, it stopped when people were in front of me.","No, not really.",3,3.1,2.7,2.6,-1.8,2.8,2,2,4,2,2,3,6.4,6.3,"Yes, it stopped me from turning into obstacles.","Yes, it was turning me into a direction towards the goal.",2.9,1.6,3.1,2.2,2.8,2.9,2,2,2,1,1,2,6,6.3,The trip was short so I didn't have a comment on this.,"No, I didn't feel a strong intervention.",2.8,2.4,2.6,2.7,-2.6,3,2,1,2,2,2,2,5.9,6,"Yes, it stopped me whenever I am near objects.","Yes, audio prompts helped me find my goal.",2.9,1.1,3,2.1,1.3,2.8,2,2,2,2,1,7,6.1,6.2,"No, I didn't feel that it was trying to keep me away from obstacles.","No, not at all.",1.1,3.1,3.1,1.1,-1.4,3.2,2,2,7,2,3,3,6.2,6,"Yes, it slowed down when I was near obstacles.","Yes, it stopped me from driving to the wrong goals.",1.2,3.1,-2.3,-1,-1.6,1.7,2,14,12,2,12,12,6.3,4.8,"Yes, it stopped when facing obstacles.","Yes, I could sense guidance from it.",1.9,-2,2.6,1.9,2.2,2.5,7,2,12,3,2,5,6,6.3,"Yes, it slowed down when near obstacles.","No, not at all.",2.8,-2.3,2.9,3.4,3.2,3.3,13,2,13,1,5,4,6.1,6,"Yes, it slowed down when near objects.","No, not at all.",2,1,1,1,1,1,2,1,2,1,2,1,2,2,2,24,1,,Student,Chinese,5,2,Months,
2018-08-08 11:27:31,2018-08-08 12:58:53,0,206.87.212.80,100,5481,1,2018-08-08 12:58:54,R_2QQJU6xuQ5gL1JH,,,,,49.278793334961,-123.11389923096,anonymous,EN,3.1,2,1,-2,2,-1.9,1,-1,-1,5,13,5,3,8,14,5.9,2.2,It made it more difficult by telling me there were obstacles when I knew the path ahead was clear,It made it slower than it would have been otherwise.,2,-3,1.9,2,3,2.1,1,1,15,1,1,2,4.6,6,"I did not notice the chair helping much, only once and that moment it did help by slowing down near an obstacle.",I did not notice the chair helping.,-3,2.3,-3,-1.1,-2,-2,14,12,3,9,13,17,4.1,1.2,It seemed to give more space to obstacles than I felt was needed. This made it more difficult to drive.,It made it very difficult since I did not feel I had control to move the chair at points,0,0,0,0,0,0,10,10,10,10,10,10,3.5,3.5,"wheelchair failed ",,1,1,1,1,-1,-1.1,12,11,12,7,12,11,2.3,2.9,"At one point, it seemed as though the chair was driving me into a desk which seemed unsafe.","It made it more difficult by taking too much control. ",-1,2.2,2.2,1,-2.1,-1.1,7,8,13,3,5,11,4.7,4.8,Passing though the door seemed to delay my turn and it felt like I would it another obstacle. So this made it more difficult.,"The chair did help since it took so much control. I did not have to pick a direction, I could just go forward and it took me to the destination. ",2,-1.9,1,2,1,1.1,5,7,14,4,5,7,4.7,4.8,It helped by slowing near the obstacles.,I did not notice it helping with the task.,-1,1.1,-3,-1,-2,-2,7,12,5,8,7,14,4.6,1.2,I did not notice the chair helping with obstacles.,It made the ask more difficult because it was so slow.,1.1,2.1,2.5,-0.9,-2,-0.9,6,3,13,3,2,12,4.7,2.2,"Yes, it did help. The chair seemed to have a lot of control over the direction and kept a good distance from obstacles.","It did help complete the task. It seemed to be doing most of the work. I didn't need to pick a goal, it just drove towards the goal on its own. ",1.5,2.1,2.1,1,-1,1.1,6,5,15,4,3,13,2.2,2.4,The chair seemed slow to turn through the doorway and got closer to an obstacles than I would have liked.,It did help by taking most of the control. It mostly seemed to choose the direction.,2.1,-1,2.1,2.1,2.2,2.1,5,8,14,5,7,6,4.7,4.7,I did not notice it helping with obstacles.,I did not notice it helping with the task.,-1,2.2,-1,-1,-1.8,0.9,7,5,14,8,7,14,4.7,2.3,It told me there was an obstacle when I knew there wasn't which did not help.,It helped by telling me where the goal was.,-2,2.1,2,-2,-1.8,-1,2,3,6,2,1,15,4.6,1.7,It did help by keeping a distance from the obstacles.,"It did help. The chair did most of the driving. I did not need to give it direction or choose which goal to go to. All I did was tell it to move and it did the rest. ",2,-1.1,1,1.9,1.9,1,12,13,14,4,12,7,4.6,5.3,I did not notice it helping with the obstacles.,I did not notice it helping with the task.,-2,2.2,-2,-1,-2,-2,13,13,2,7,13,16,5.3,1.7,It helped by slowing near obstacles.,It made it much more difficult by slowing down so much.,-1,2,1.9,-1,-1.9,-1.8,4,11,12,6,8,13,2.3,1.7,The chair made it more difficult by getting closer to obstacles than I would have liked and giving me little control over direction to avoid them myself.,It did help with that task by leading me straight to the correct goal.,2,2,2,2,1,2,2,2,1,1,2,1,1,1,1,25,2,,"Student ","English ",5,2,Less than an hour,
